^C:\USERS\106822\DOWNLOADS\SZKOLA\CPP_A NIE_C\CPP_A_NIE_C.CPP
/c /ZI /nologo /W3 /WX- /sdl /Od /Oy- /D _MBCS /Gm /EHsc /RTC1 /MDd /GS /fp:precise /Zc:wchar_t /Zc:forScope /Fo"DEBUG\\" /Fd"DEBUG\VC120.PDB" /Gd /TP /analyze- C:\USERS\106822\DOWNLOADS\SZKOLA\CPP_A NIE_C\CPP_A_NIE_C.CPP
^C:\USERS\106822\DOWNLOADS\SZKOLA\CPP_A NIE_C\CPP_A_NIE_C.C
/c /ZI /nologo /W3 /WX- /sdl /Od /Oy- /D _MBCS /Gm /EHsc /RTC1 /MDd /GS /fp:precise /Zc:wchar_t /Zc:forScope /Fo"DEBUG\\" /Fd"DEBUG\VC120.PDB" /Gd /TC /analyze- C:\USERS\106822\DOWNLOADS\SZKOLA\CPP_A NIE_C\CPP_A_NIE_C.C
