^C:\USERS\106822\DOWNLOADS\SZKOLA\CPP_A NIE_C\DEBUG\CPP_A_NIE_C.OBJ
C:\USERS\106822\DOWNLOADS\SZKOLA\DEBUG\CPP_A NIE_C.ILK
C:\USERS\106822\DOWNLOADS\SZKOLA\DEBUG\CPP_A NIE_C.EXE
C:\USERS\106822\DOWNLOADS\SZKOLA\DEBUG\CPP_A NIE_C.PDB
